0.00 Reducing table.
-0.00 Equivalent columns for reduced table in original table starting from 1
1 2 8 9 11 12 15 18 20 21 22 23 26 27 36 43 44 50 51 58 60 71 72 73 76 77 79 81 82 83 87 93 94 98 109 115 121 122 130 131 132 136 138 139 140 142 145 146 150 151 152 155 156 159 169 170 171 179 180 187 189 190 197 203 209 215 219 220 227 228 231 234 235 236 239 245 246 248 249 252 255 257 259 261 266 269 270 271 281 282 285 286 287 291 292 301 305 310 315 318 323 329 331 332 333 336 340 342 343 344 349 354 366 370 375 381 385 387 388 400 401 403 404 405 408 413 416 421 427 441 443 449 451 452 458 459 460 461 463 465 468 473 477 478 481 482 485 490 501 504 505 507 512 517 520 530 531 532 535 537 538 539 540 541 543 546 547 548 552 553 563 564 565 571 595 601 605 608 609 613 623 626 632 634 636 637 642 661 668 670 671 672 676 677 678 681 686 688 692 693 695 697 699 709 714 725 728 731 734 744 748 749 754 758 759 764 770 775 778 780 782 783 789 791 806 810 814 817 818 821 823 824 828 846 847 858 862 863 865 866 870 872 873 876 879 884 886 888 892 895 899 900 904 906 909 910 925 929 931 934 935 936 940 942 943 952 955 959 963 964 968 971 973 975 976 977 980 982 987 988 993 996 998 1001 1002 1006 1007 1008 1010 1015 1016 1018 1022 1023 1025 1028 1040 1045 1046 1048 1056 1059 1060 1064 1067 1075 1077 1087 1089 1098 1101 1107 1108 1112 
 Equivalent columns in original table starting from 1, blank means null set 
3<=> 1 12 18 181 245 
4<=> 2 12 18 36 73 143 153 245 271 313 332 384 410 484 510 933 
5<=> 1 2 12 18 21 33 37 62 69 73 108 152 157 162 181 187 196 221 230 245 256 271 295 299 313 342 360 410 466 510 536 538 540 681 689 731 759 861 933 977 979 992 1070 1081 
6<=> 2 11 18 143 178 198 243 245 332 
7<=> 1 2 11 17 18 21 22 30 31 41 51 52 72 88 105 118 139 143 146 147 149 157 160 162 168 178 181 187 198 221 230 243 245 250 270 275 295 332 339 393 402 506 516 538 539 540 541 603 681 689 731 759 889 903 918 977 979 984 1041 1078 
10<=> 26 39 63 65 77 93 101 170 219 227 264 310 323 344 347 380 405 409 485 585 609 680 748 764 817 821 959 987 1008 1023 1062 1075 
13<=> 2 
14<=> 2 12 18 21 36 143 153 245 250 271 299 332 342 510 
16<=> 2 11 12 18 38 73 75 107 109 130 198 243 245 271 297 313 410 481 510 537 670 933 
17<=> 2 11 18 21 72 143 178 198 243 245 250 270 332 339 
19<=> 11 12 18 38 73 130 198 245 297 342 410 
24<=> 12 18 36 149 152 153 196 245 332 538 
25<=> 18 
28<=> 2 11 12 18 21 31 36 72 75 80 105 130 143 149 152 153 157 160 163 166 168 178 196 198 229 243 245 250 270 271 275 276 295 297 299 300 332 339 342 359 393 396 426 439 510 536 538 540 541 918 977 992 1041 1070 
29<=> 235 305 323 336 548 
30<=> 1 2 11 18 21 22 41 51 72 88 143 146 162 178 181 187 198 221 243 245 250 270 332 339 506 681 731 759 889 
31<=> 2 11 18 157 198 243 245 538 540 
32<=> 11 12 18 38 73 130 152 196 198 245 276 297 360 410 538 
33<=> 1 2 12 18 181 245 271 510 759 
34<=> 2 
35<=> 2 11 12 18 38 62 69 73 75 130 152 157 196 198 243 245 271 276 297 313 360 396 410 510 536 538 540 670 933 992 
37<=> 1 2 12 18 62 69 73 152 157 181 196 230 245 256 271 313 360 410 510 536 538 540 759 933 979 992 
38<=> 11 18 73 198 245 410 
39<=> 26 63 93 344 405 609 748 1008 
40<=> 1 11 18 73 124 147 149 178 181 198 230 245 255 256 304 332 360 403 410 481 482 506 538 604 768 780 903 918 950 
41<=> 1 2 11 18 21 51 72 88 143 162 178 181 187 198 221 243 245 250 270 332 339 506 681 731 759 889 
42<=> 26 83 98 375 405 748 828 
45<=> 26 47 63 98 609 748 818 828 1001 1008 1112 
46<=> 9 26 47 48 49 59 63 64 65 66 78 83 84 86 93 94 98 100 101 104 116 128 132 135 137 174 188 189 191 194 195 200 205 207 219 225 235 236 239 242 248 251 257 260 264 265 280 281 282 283 284 286 287 296 305 306 323 333 334 336 340 343 344 347 348 355 356 363 364 366 368 372 375 395 400 405 415 429 437 440 443 451 467 473 477 485 486 494 509 513 515 525 548 552 554 558 563 569 571 574 575 576 577 582 583 585 586 587 592 595 599 605 607 608 609 623 630 635 643 662 668 677 678 680 685 686 693 697 699 700 701 706 709 711 714 717 726 732 736 745 748 754 756 764 769 770 778 779 784 789 799 801 802 804 810 813 814 817 818 823 824 827 828 856 858 862 863 868 872 873 876 892 912 924 925 931 932 936 943 959 963 973 980 981 982 983 987 993 996 1001 1002 1004 1007 1008 1009 1013 1015 1016 1018 1025 1030 1038 1047 1048 1052 1056 1060 1071 1073 1077 1084 1106 1112 
47<=> 98 609 818 828 1001 1112 
48<=> 26 59 63 83 93 94 98 343 344 375 405 609 748 818 828 1001 1008 1025 1112 
49<=> 83 98 282 284 286 595 605 678 699 813 828 856 862 876 892 987 1048 
52<=> 2 11 18 21 72 105 143 146 149 157 160 168 178 198 243 245 250 270 275 295 332 339 393 538 539 540 541 918 977 1041 
53<=> 2 11 18 21 72 73 143 145 178 198 243 245 250 270 332 339 410 462 466 484 517 768 933 1064 1080 
54<=> 1 2 11 12 18 21 27 36 51 57 72 75 80 88 105 106 110 118 130 139 143 147 149 152 153 157 160 162 163 164 166 168 178 181 187 196 198 215 221 229 230 243 245 246 250 267 269 270 271 275 276 295 297 299 300 316 332 339 342 359 370 393 396 401 402 418 426 428 439 446 453 468 506 507 510 516 536 538 540 541 551 584 603 620 647 658 671 681 689 731 759 851 860 861 889 903 910 918 934 975 977 979 984 992 1041 1067 1070 1078 1081 
55<=> 2 11 18 69 73 157 198 243 245 360 410 452 538 540 933 
56<=> 2 11 18 21 72 143 146 178 198 243 245 250 270 332 339 505 
57<=> 1 2 11 12 18 21 36 51 72 75 80 88 105 110 118 130 139 143 147 149 152 153 157 160 162 163 166 168 178 181 187 196 198 221 229 230 243 245 250 270 271 275 276 295 297 299 300 332 339 342 359 393 396 402 426 428 439 506 510 516 536 538 540 541 603 647 681 689 731 759 851 861 889 903 918 977 979 984 992 1041 1070 1078 1081 
59<=> 83 93 94 98 609 818 828 1001 1025 1112 
61<=> 48 
62<=> 2 12 18 69 73 152 157 196 245 271 313 360 410 510 536 538 540 933 992 
63<=> 26 609 748 1008 
64<=> 83 98 260 280 282 284 366 823 828 858 862 987 
65<=> 26 219 485 609 680 748 817 1008 
66<=> 83 84 93 94 98 188 194 207 219 282 283 284 286 287 323 333 334 347 348 363 368 440 451 467 583 585 595 605 609 623 668 678 699 701 754 764 784 813 818 828 856 862 873 876 892 931 987 996 1001 1004 1018 1025 1048 1060 1112 
67<=> 28 
68<=> 2 11 12 18 21 36 72 75 80 105 130 143 146 149 152 153 157 160 163 166 168 172 178 196 198 229 243 245 250 270 271 275 276 295 297 299 300 332 339 342 359 393 396 426 439 510 536 537 538 539 540 541 631 908 918 977 992 1041 1070 
69<=> 2 18 73 157 245 360 410 538 540 933 
70<=> 12 
74<=> 11 245 634 728 866 906 1086 
75<=> 2 11 12 18 130 198 243 245 271 297 510 
78<=> 26 83 86 98 260 280 282 284 366 375 405 554 592 605 697 699 700 714 732 748 802 813 817 823 828 856 858 862 863 872 876 892 924 987 1002 1007 1015 
80<=> 11 12 18 36 130 149 152 153 178 196 198 245 276 297 332 439 538 918 
84<=> 83 93 94 98 219 467 583 585 605 609 668 818 828 856 873 876 931 1001 1018 1025 1060 1112 
85<=> 47 
86<=> 26 83 98 282 284 375 405 697 748 828 862 863 924 987 
88<=> 1 2 11 18 21 162 181 187 198 221 243 245 339 681 731 759 
89<=> 59 
90<=> 59 
91<=> 39 
92<=> 45 
95<=> 48 
96<=> 48 
97<=> 48 
99<=> 83 
100<=> 26 93 257 281 305 344 372 405 548 554 609 748 858 1008 
101<=> 26 93 323 344 347 405 609 748 764 987 1008 
102<=> 45 
103<=> 48 
104<=> 26 83 93 94 98 188 207 282 283 284 287 323 343 344 347 375 405 552 609 697 748 764 818 828 862 863 924 987 1001 1008 1025 1112 
105<=> 2 11 18 21 157 198 243 245 295 339 538 540 977 
106<=> 1 18 51 147 149 162 181 187 230 245 332 506 538 731 910 977 
107<=> 2 12 18 73 109 245 271 313 410 510 933 
108<=> 1 18 73 162 181 187 230 245 256 360 410 538 731 977 
110<=> 1 2 11 12 18 21 36 51 72 130 143 153 162 163 178 181 187 198 221 229 243 245 250 270 271 297 299 300 332 339 342 439 506 510 681 731 759 861 889 
111<=> 42 
112<=> 66 
113<=> 2 11 12 18 21 36 72 130 143 153 163 178 198 229 243 245 250 270 271 297 299 300 332 339 342 439 505 510 
114<=> 83 
116<=> 281 485 778 1008 
117<=> 15 
118<=> 1 2 11 18 21 51 72 139 143 147 149 157 160 162 168 178 181 187 198 221 230 243 245 250 270 275 295 332 339 393 402 506 516 538 540 541 603 681 689 731 759 889 903 918 977 979 984 1041 1078 
119<=> 17 
120<=> 2 11 12 18 21 36 72 73 130 143 149 152 153 157 160 163 166 168 178 196 198 214 229 243 245 250 254 258 270 271 275 276 295 297 299 300 304 313 332 338 339 342 359 360 383 384 393 396 410 426 439 462 466 475 484 510 529 536 538 540 541 670 738 768 918 933 977 978 992 1041 1064 1070 1080 
123<=> 2 11 12 18 21 36 44 72 73 130 143 145 149 152 153 157 160 163 166 168 178 196 198 214 229 243 245 250 254 258 270 271 275 276 295 297 299 300 304 313 321 332 338 339 342 359 360 383 384 393 396 410 426 439 447 462 466 475 484 510 517 529 530 536 538 540 541 666 670 738 749 768 780 918 920 933 977 978 992 1041 1064 1070 1080 1111 
124<=> 1 18 73 147 149 181 230 245 256 332 360 410 482 506 538 
125<=> 1 2 12 18 21 36 51 73 143 153 162 181 187 221 245 250 271 299 313 332 342 384 410 466 482 484 506 510 537 681 731 759 861 933 1080 
126<=> 26 93 219 227 257 264 281 305 306 344 372 405 485 548 554 585 609 643 680 748 778 821 858 959 1008 1023 1046 1062 1106 
127<=> 17 
128<=> 26 83 93 94 98 135 174 188 191 194 195 200 205 207 219 225 235 236 239 242 248 251 257 260 264 265 280 281 282 283 284 286 287 296 305 306 323 333 334 336 340 343 344 347 348 355 356 363 364 366 368 372 375 395 400 405 415 429 437 440 443 451 467 473 477 485 486 494 513 515 525 548 552 554 558 563 569 574 577 582 583 585 586 587 592 595 605 607 609 623 630 635 643 662 668 678 680 686 693 697 699 700 701 709 714 717 726 732 736 748 754 756 764 769 778 779 784 789 799 801 802 804 810 813 817 818 823 827 828 856 858 862 863 868 872 873 876 892 912 924 925 931 932 936 943 963 980 981 982 983 987 996 1001 1002 1004 1007 1008 1009 1013 1015 1016 1018 1025 1030 1038 1047 1048 1052 1060 1071 1073 1077 1084 1106 1112 
129<=> 41 
133<=> 26 76 83 93 94 98 135 136 179 188 191 194 205 207 235 236 239 242 248 251 257 260 265 280 281 282 283 284 286 287 296 305 323 333 336 343 344 347 348 355 356 363 364 366 372 375 379 400 405 415 433 437 451 477 486 494 515 532 534 548 552 554 587 592 595 609 661 672 678 697 709 748 764 769 789 818 823 828 858 862 863 904 924 936 957 980 981 983 987 1001 1007 1008 1009 1025 1046 1052 1071 1084 1108 1112 
134<=> 100 
135<=> 26 83 93 94 98 257 260 281 305 343 344 366 372 375 405 515 548 554 609 748 818 828 858 981 1001 1008 1025 1112 
137<=> 9 26 83 93 94 98 174 188 195 205 207 219 235 239 242 248 251 257 260 264 265 280 281 282 283 284 287 305 306 323 336 340 343 344 347 366 372 375 405 437 467 485 509 513 515 525 548 552 554 563 569 571 576 577 583 585 586 592 599 605 607 608 609 630 643 662 668 677 680 686 693 697 699 700 701 706 714 732 748 756 764 770 778 779 784 802 813 817 818 823 827 828 856 858 862 863 872 873 876 892 924 925 931 959 963 973 981 982 987 1001 1002 1007 1008 1015 1018 1025 1030 1052 1056 1060 1071 1077 1106 1112 
141<=> 12 
143<=> 2 18 245 332 
144<=> 2 11 12 18 36 73 109 130 146 153 172 178 198 199 229 243 245 246 258 271 297 313 332 384 410 439 481 484 488 510 537 604 670 729 744 768 906 933 
147<=> 1 18 149 181 230 245 332 506 538 
148<=> 2 11 12 18 36 44 73 130 145 146 149 152 153 154 157 160 172 178 196 198 214 229 243 245 255 258 271 275 276 297 304 313 332 359 360 383 384 396 403 410 439 475 481 484 510 536 537 538 539 540 541 604 670 738 758 768 780 908 918 920 933 978 992 
149<=> 18 245 332 538 
153<=> 12 18 36 245 332 
154<=> 12 18 36 73 152 196 245 332 360 383 384 403 410 538 
157<=> 2 18 245 538 540 
158<=> 157 
160<=> 2 18 245 332 538 540 541 
161<=> 153 
162<=> 1 18 181 187 245 731 
163<=> 2 11 12 18 21 36 72 130 178 198 229 243 245 250 270 271 297 299 300 332 339 342 439 510 
164<=> 2 12 18 21 152 196 245 271 295 299 342 510 536 538 540 977 992 1067 1070 
165<=> 14 
166<=> 2 12 18 21 36 152 168 196 245 250 271 295 299 332 342 359 510 536 538 540 541 977 992 1070 
167<=> 104 
168<=> 2 18 21 245 250 295 332 538 540 541 977 
172<=> 2 11 12 18 36 130 146 178 198 229 243 245 271 297 332 439 510 537 
173<=> 170 228 336 531 
174<=> 26 83 93 94 98 188 195 205 207 219 235 239 242 248 251 257 260 264 265 280 281 282 283 284 287 305 306 323 336 340 343 344 347 366 372 375 405 437 467 485 513 515 525 548 552 554 563 569 577 583 585 586 592 605 607 609 630 643 662 668 680 686 693 697 699 700 701 714 732 748 756 764 778 779 784 802 813 817 818 823 827 828 856 858 862 863 872 873 876 892 924 925 931 963 981 982 987 1001 1002 1007 1008 1015 1018 1025 1030 1052 1060 1071 1077 1106 1112 
175<=> 59 
176<=> 26 93 219 227 257 264 281 286 291 305 306 334 344 372 405 473 485 541 548 554 585 609 643 661 680 717 748 777 778 821 858 959 1008 1009 1023 1046 1048 1062 1106 
177<=> 1 2 11 18 21 73 181 187 198 221 230 243 245 256 295 339 360 410 462 466 516 529 538 540 681 689 731 759 933 977 979 984 
178<=> 11 18 198 245 332 
181<=> 1 18 245 
182<=> 29 
183<=> 104 
184<=> 120 
185<=> 100 
186<=> 83 
188<=> 282 818 828 
191<=> 26 83 93 94 98 194 207 282 283 284 286 287 296 323 333 343 344 347 348 363 364 375 400 405 451 477 486 552 595 609 678 697 709 748 764 818 828 862 863 924 936 987 1001 1008 1009 1025 1112 
192<=> 59 
193<=> 1 2 12 18 21 36 51 73 152 187 196 221 230 245 250 256 271 295 299 313 332 342 359 360 383 384 402 410 454 466 475 482 484 506 510 536 538 540 541 603 647 681 689 731 759 851 861 909 933 977 979 992 1070 1078 1080 1081 1097 
194<=> 98 609 678 818 828 1001 1112 
195<=> 26 83 93 94 98 207 219 264 282 283 284 287 323 340 343 344 347 375 405 467 485 525 552 569 583 585 605 609 668 680 697 699 700 701 748 764 779 784 813 817 818 828 856 862 863 873 876 892 924 925 931 963 982 987 1001 1002 1008 1018 1025 1030 1060 1077 1112 
196<=> 12 18 152 245 538 
198<=> 11 18 245 
199<=> 11 12 18 36 73 130 245 297 332 384 410 439 488 768 906 
200<=> 26 83 93 94 98 219 257 260 264 281 286 305 306 333 334 343 344 364 366 368 372 375 405 443 467 473 485 486 513 515 525 548 554 569 582 583 585 605 607 609 623 643 668 678 680 686 717 726 748 778 779 818 827 828 856 858 872 873 876 925 931 981 1001 1002 1008 1009 1018 1025 1047 1048 1060 1084 1106 1112 
201<=> 1 2 11 18 73 230 243 245 256 275 304 332 360 410 482 484 506 538 540 541 632 759 768 903 918 933 950 978 979 984 1078 1097 
202<=> 21 
204<=> 26 93 205 219 235 239 248 257 264 280 281 305 306 323 336 344 347 372 405 421 485 534 548 554 577 585 592 609 643 680 732 748 756 764 778 817 823 858 987 1008 1023 1046 1106 
205<=> 26 93 235 239 248 257 280 281 305 323 336 344 347 372 405 548 554 592 609 748 764 823 858 987 1008 
206<=> 163 
207<=> 83 93 94 98 282 283 284 287 323 347 609 764 818 828 862 987 1001 1025 1112 
208<=> 98 
210<=> 59 
211<=> 104 
212<=> 17 
213<=> 49 
214<=> 11 12 18 36 73 130 152 245 276 297 304 332 360 383 384 410 439 538 768 918 
216<=> 30 
217<=> 26 93 179 219 235 239 248 257 264 280 281 286 296 305 306 323 334 336 344 347 348 355 372 400 405 421 429 451 473 477 485 494 534 548 554 577 585 592 595 609 643 661 680 717 732 736 748 756 764 777 778 817 823 858 912 932 957 980 983 987 996 1008 1009 1023 1037 1046 1048 1073 1106 
218<=> 2 11 12 18 21 36 43 60 72 130 146 229 243 245 250 270 271 297 299 300 332 339 342 439 510 537 940 
221<=> 1 245 681 731 759 
222<=> 1 2 12 18 21 36 51 73 109 171 187 245 246 250 267 271 299 313 332 342 357 384 410 466 468 482 484 488 506 510 671 681 729 731 755 759 861 866 906 933 1080 
223<=> 1 2 11 12 18 21 22 27 36 51 72 130 139 146 152 187 215 224 229 230 243 245 246 250 267 269 270 271 275 276 295 297 299 300 316 332 339 342 359 393 396 401 402 426 428 439 453 468 506 510 516 536 537 538 539 540 541 551 603 620 631 647 658 671 681 689 731 759 851 861 889 902 903 908 918 934 977 979 984 992 1041 1070 1078 1081 
224<=> 2 12 18 21 36 245 246 250 267 271 299 332 342 510 537 
225<=> 443 595 605 697 823 828 862 863 876 892 1002 1015 
226<=> 83 
229<=> 2 11 12 18 36 130 243 245 271 297 332 439 510 
230<=> 1 18 245 538 
232<=> 2 11 12 18 21 36 72 130 146 180 243 245 250 259 270 271 297 299 300 332 339 342 439 510 537 940 
233<=> 46 
237<=> 235 
238<=> 235 
240<=> 239 
241<=> 239 
242<=> 235 239 343 
243<=> 2 11 18 245 
244<=> 75 
247<=> 62 
250<=> 2 18 21 245 332 
251<=> 281 287 828 1001 
253<=> 2 
254<=> 2 11 12 18 21 36 72 73 130 245 258 270 271 297 299 300 313 332 339 342 384 410 439 462 466 484 510 670 768 933 1064 1080 
256<=> 1 18 73 245 360 410 538 
258<=> 2 11 12 18 36 73 130 245 271 297 313 332 384 410 439 484 510 670 768 933 
260<=> 83 98 366 828 858 
262<=> 1 2 11 12 18 22 36 73 109 130 146 169 245 246 271 297 313 332 357 384 386 410 439 481 482 484 488 506 510 537 604 634 670 729 744 759 768 866 906 933 950 
263<=> 2 11 12 15 18 21 36 72 130 146 152 245 270 271 275 276 295 297 299 300 332 339 342 359 393 396 426 439 510 535 536 537 538 539 540 541 631 908 918 940 977 992 1041 1070 
264<=> 26 93 219 344 405 485 585 609 680 748 1008 
265<=> 26 83 93 94 98 235 239 248 257 280 281 282 283 284 287 305 323 336 343 344 347 366 372 375 405 437 515 548 552 554 592 609 697 748 764 818 823 828 858 862 863 924 981 987 1001 1007 1008 1025 1052 1071 1112 
267<=> 2 12 18 21 36 245 246 271 299 332 342 510 
268<=> 1 2 11 18 22 73 245 255 360 410 481 538 539 540 759 780 933 979 984 
272<=> 163 
273<=> 2 11 12 15 18 21 23 27 36 44 58 72 73 109 122 130 142 145 146 150 152 159 215 234 245 246 249 252 255 261 270 271 275 276 295 297 299 300 301 304 308 313 321 332 337 338 339 342 349 359 360 383 384 393 396 401 403 410 426 439 447 449 452 459 462 463 466 475 481 484 497 510 517 522 529 530 535 536 537 538 539 540 541 604 614 619 631 638 658 666 670 691 738 749 758 768 780 806 837 888 908 918 920 933 934 942 972 977 978 992 998 999 1010 1041 1064 1070 1080 1087 1111 
274<=> 42 
275<=> 2 11 18 245 332 538 540 541 918 
276<=> 11 12 18 130 152 245 297 538 
277<=> 59 
278<=> 59 
279<=> 93 
280<=> 823 858 987 
283<=> 282 764 818 828 
284<=> 83 98 282 828 862 987 
288<=> 59 
289<=> 101 
290<=> 59 
293<=> 45 
294<=> 63 
295<=> 2 18 21 245 538 540 977 
296<=> 26 93 286 323 344 347 348 400 405 451 477 595 609 748 764 987 1008 1009 
297<=> 11 12 18 130 245 
298<=> 18 
299<=> 2 12 18 21 245 271 342 510 
300<=> 2 11 12 18 21 130 245 271 339 342 510 
302<=> 26 77 79 93 132 170 179 219 220 227 228 235 239 248 257 281 286 291 305 306 310 311 323 334 336 344 347 348 355 372 380 400 405 409 421 429 451 473 477 485 494 531 534 541 548 554 577 585 592 595 609 643 661 680 717 732 736 748 756 764 777 778 817 821 823 824 858 912 932 957 959 980 983 987 996 1008 1009 1023 1033 1037 1046 1048 1062 1073 1075 1106 
303<=> 1 2 11 12 18 21 73 130 152 187 245 271 313 339 342 360 386 396 410 426 428 462 466 510 516 529 536 538 540 670 681 689 731 759 861 933 977 979 984 992 1070 1081 
304<=> 11 18 73 245 332 360 410 538 768 918 
306<=> 26 219 257 485 609 680 748 778 1008 1106 
307<=> 148 
308<=> 2 12 18 23 36 73 109 145 152 159 234 245 246 271 313 332 359 360 383 384 401 403 410 452 475 484 510 535 536 537 538 540 541 780 933 992 1087 
309<=> 17 
311<=> 79 228 235 239 291 531 541 548 817 980 1075 
312<=> 24 
313<=> 2 12 18 73 245 271 410 510 933 
314<=> 72 
316<=> 1 2 11 18 21 51 72 187 245 270 332 339 506 671 681 731 759 889 
317<=> 2 11 18 21 73 150 245 255 339 360 410 462 466 481 517 529 538 539 540 729 780 906 933 969 977 
319<=> 300 
320<=> 1 2 12 18 36 73 145 245 271 332 384 410 482 484 506 510 759 933 
321<=> 2 11 12 18 21 36 72 73 130 145 245 270 271 332 339 342 384 410 439 447 462 466 484 510 517 670 768 933 1064 1080 
322<=> 207 
324<=> 48 
325<=> 48 
326<=> 59 
327<=> 98 
328<=> 59 
330<=> 35 
334<=> 93 219 286 585 609 1048 
335<=> 118 
337<=> 2 11 12 18 36 73 130 145 245 261 271 332 384 410 439 484 510 670 768 933 
338<=> 2 11 18 21 72 73 245 270 332 339 360 393 410 462 466 484 529 538 540 541 768 918 933 977 978 1041 1064 1080 
339<=> 2 11 18 21 245 
341<=> 2 11 12 18 21 36 72 130 171 245 270 271 332 342 439 510 729 906 
345<=> 29 
346<=> 2 
347<=> 93 323 609 764 987 
348<=> 93 286 323 451 595 609 764 987 
350<=> 28 
351<=> 9 26 76 77 79 83 87 93 94 98 115 132 136 139 140 170 179 189 203 219 220 227 228 235 236 239 248 257 281 282 286 287 291 305 310 315 323 329 333 336 340 343 344 355 356 363 364 366 368 372 375 379 380 385 387 395 400 405 409 415 416 421 429 433 437 440 443 451 455 467 473 477 485 486 487 494 509 513 515 525 531 532 534 541 547 548 552 554 558 559 562 563 566 569 571 574 575 576 577 578 582 583 585 586 587 592 595 599 605 607 608 609 613 623 626 629 630 635 643 661 662 668 672 677 678 680 685 686 693 697 699 700 701 706 707 709 710 711 714 717 726 732 736 745 748 754 756 764 769 770 776 777 778 779 784 789 799 801 802 804 810 813 814 817 818 821 823 824 826 827 828 847 856 858 862 863 868 872 873 876 892 904 912 924 925 931 932 936 943 956 957 959 963 973 980 981 982 983 987 993 996 1001 1002 1004 1007 1008 1009 1013 1014 1015 1016 1018 1023 1025 1030 1033 1037 1038 1046 1047 1048 1052 1056 1059 1060 1062 1071 1073 1075 1077 1084 1090 1091 1094 1098 1106 1108 1112 
352<=> 57 
353<=> 104 
355<=> 235 305 323 336 451 548 
356<=> 26 83 93 94 98 235 236 239 248 257 281 282 286 287 305 323 333 336 343 344 363 364 366 372 375 400 405 415 437 451 477 486 494 515 548 552 554 587 592 595 609 678 697 709 748 764 769 789 818 823 828 858 862 863 924 936 980 981 983 987 1001 1007 1008 1009 1025 1052 1071 1084 1112 
357<=> 1 18 245 332 506 866 906 
358<=> 270 
359<=> 2 12 18 36 152 245 271 332 510 536 538 540 541 992 
360<=> 18 73 245 410 538 
361<=> 4 
362<=> 243 
363<=> 83 93 94 98 282 286 287 323 333 451 595 609 678 764 818 828 862 987 1001 1025 1112 
364<=> 26 83 98 286 375 405 678 748 828 
365<=> 195 
367<=> 48 
368<=> 83 93 94 98 219 286 333 467 583 585 605 609 623 668 678 818 828 856 873 876 931 1001 1018 1025 1048 1060 1112 
369<=> 1 2 11 12 18 21 36 51 72 73 130 139 152 187 245 270 271 332 342 383 384 386 393 396 402 410 426 428 432 439 454 462 466 475 482 484 506 510 516 529 536 538 540 541 603 632 647 670 681 689 731 738 759 768 851 861 883 889 903 909 918 933 950 977 978 979 984 992 1041 1064 1070 1078 1080 1081 1097 
371<=> 17 
372<=> 93 257 281 609 858 
373<=> 48 
374<=> 104 
376<=> 2 11 12 18 21 36 72 130 245 270 271 332 342 439 461 505 510 
377<=> 124 
378<=> 174 
379<=> 26 98 136 257 366 515 609 748 818 828 1001 1008 1046 1112 
380<=> 170 344 821 959 
382<=> 246 
383<=> 12 18 36 73 152 245 332 384 410 538 
384<=> 12 18 36 73 245 332 410 
386<=> 1 11 245 271 670 759 
389<=> 17 
390<=> 163 
391<=> 17 
392<=> 83 
393<=> 2 11 18 21 72 245 270 332 538 540 541 918 977 1041 
394<=> 93 
395<=> 83 93 94 98 219 257 281 282 286 287 323 333 366 429 440 451 467 577 583 585 586 587 595 605 607 609 623 630 643 668 678 699 701 754 756 764 778 784 799 810 813 818 823 827 828 856 858 862 872 873 876 892 931 943 981 983 987 996 1001 1004 1015 1016 1018 1025 1038 1047 1048 1052 1060 1071 1084 1106 1112 
396<=> 2 11 12 18 130 152 245 271 510 536 538 540 992 
397<=> 66 
398<=> 311 
399<=> 110 
402<=> 1 51 245 540 681 731 759 
406<=> 47 
407<=> 59 
409<=> 170 323 485 1075 
410<=> 18 73 245 
411<=> 47 
412<=> 18 
414<=> 356 
415<=> 235 236 239 343 548 980 
417<=> 207 
418<=> 1 2 11 12 18 21 36 51 72 130 187 245 270 271 332 342 439 506 510 681 731 759 861 889 975 
419<=> 250 
420<=> 302 
422<=> 356 
423<=> 128 
424<=> 205 
425<=> 1 18 73 245 332 482 506 538 688 866 906 969 971 
426<=> 2 11 12 18 21 130 152 245 271 342 510 536 538 540 977 992 1070 
428<=> 1 2 11 12 18 130 152 245 271 510 536 538 540 759 979 984 992 
429<=> 93 219 257 281 286 323 451 577 585 595 609 643 756 764 778 823 858 983 987 996 1048 1106 
430<=> 17 
431<=> 243 
432<=> 1 2 11 12 18 36 73 130 152 245 271 332 439 475 482 484 506 510 536 538 540 541 632 670 738 759 768 851 903 909 918 933 950 978 979 984 992 1078 1097 
433<=> 26 76 83 93 94 98 136 235 239 248 257 281 282 287 305 323 336 343 344 366 375 405 437 515 532 534 548 552 554 592 609 672 697 748 764 818 823 828 858 862 863 904 924 981 987 1001 1007 1008 1025 1046 1052 1071 1112 
434<=> 2 
435<=> 336 
436<=> 265 
437<=> 26 98 248 257 282 287 366 515 552 609 697 748 818 828 862 863 924 1001 1008 1052 1112 
438<=> 214 
439<=> 11 12 18 36 130 245 332 
440<=> 98 219 282 287 583 609 668 678 699 784 813 818 828 856 862 873 876 931 996 1001 1112 
442<=> 393 
444<=> 42 
445<=> 264 
446<=> 2 11 12 18 21 27 36 72 130 152 215 245 246 270 271 332 342 370 401 510 536 538 540 541 658 918 934 977 992 1041 1067 1070 
447<=> 2 12 18 21 36 73 145 245 271 332 342 466 484 510 517 933 1080 
448<=> 265 
450<=> 2 
453<=> 1 2 12 18 21 27 36 51 152 187 245 246 271 332 342 401 468 506 510 536 538 540 541 603 647 671 681 689 731 759 851 861 934 977 979 992 1070 1078 1081 
454<=> 1 2 18 21 51 73 187 245 332 466 482 484 506 538 540 541 603 681 689 731 759 933 977 979 1078 1080 1097 
455<=> 9 282 291 828 
456<=> 83 
457<=> 17 
462<=> 2 11 18 21 73 245 466 933 
464<=> 43 
466<=> 2 18 21 73 245 933 
467<=> 605 818 828 1018 
469<=> 2 11 12 18 21 36 72 82 130 180 245 270 271 332 342 461 505 510 
470<=> 2 11 15 18 21 72 180 245 270 332 538 540 541 918 977 1041 
471<=> 59 
472<=> 101 
474<=> 59 
475<=> 2 12 18 36 73 152 245 271 332 484 510 536 538 540 541 933 992 
476<=> 332 
479<=> 300 
480<=> 62 
483<=> 38 
484<=> 2 18 73 245 332 933 
486<=> 26 83 93 94 98 286 333 343 344 375 405 609 678 748 818 828 1001 1008 1009 1025 1112 
487<=> 79 87 139 189 228 235 236 239 291 343 416 531 541 548 563 626 629 686 699 754 817 847 980 982 1013 1059 1075 1098 
488<=> 12 18 73 245 906 
489<=> 113 
491<=> 5 
492<=> 72 
493<=> 1 11 12 18 27 36 51 72 73 109 130 152 187 234 245 246 269 332 342 482 506 529 538 731 749 768 780 851 889 903 918 950 977 1041 
494<=> 26 93 235 239 248 257 281 286 305 323 336 344 400 405 451 477 548 554 592 595 609 748 764 823 858 980 983 987 1008 1009 
495<=> 63 
496<=> 149 
497<=> 2 11 12 18 21 73 130 150 152 245 255 271 342 481 510 517 529 536 537 538 539 540 670 780 933 977 992 1070 
498<=> 17 
499<=> 17 
500<=> 14 
502<=> 342 
503<=> 163 
506<=> 1 18 245 332 
508<=> 178 
509<=> 9 83 93 94 98 219 583 585 605 609 668 818 828 856 873 876 931 973 1001 1018 1025 1056 1060 1112 
510<=> 2 12 18 245 271 
511<=> 163 
513<=> 26 83 93 94 98 219 257 281 305 343 344 366 375 405 485 515 525 548 554 569 583 585 605 607 609 643 668 680 686 748 778 779 818 827 828 856 858 872 873 876 925 931 981 1001 1002 1008 1018 1025 1060 1106 1112 
514<=> 100 
515<=> 26 98 257 366 609 748 818 828 1001 1008 1112 
516<=> 1 2 11 18 21 187 245 538 540 681 689 731 759 977 979 984 
518<=> 124 
519<=> 38 
521<=> 83 
522<=> 2 11 12 18 36 73 130 146 152 245 271 332 403 452 481 535 536 537 538 539 540 541 604 670 738 768 908 918 933 972 978 992 
523<=> 101 
524<=> 311 
525<=> 26 83 93 94 98 219 343 344 375 405 485 569 583 585 605 609 668 680 748 779 818 828 856 873 876 925 931 1001 1002 1008 1018 1025 1060 1112 
526<=> 100 
527<=> 104 
528<=> 513 
529<=> 11 18 73 245 538 977 
533<=> 59 
534<=> 26 405 554 592 748 823 858 987 1046 
536<=> 152 245 271 540 
542<=> 101 
544<=> 393 
545<=> 118 
549<=> 265 
550<=> 88 
551<=> 1 2 11 12 18 21 130 187 215 245 271 342 671 681 731 759 861 
554<=> 26 405 748 858 
555<=> 42 
556<=> 217 
557<=> 174 
558<=> 26 98 219 248 257 282 287 366 443 485 552 569 583 587 609 630 662 668 678 680 697 699 709 748 778 779 784 799 801 802 813 817 818 827 828 856 862 863 868 873 876 924 931 936 996 1001 1002 1008 1015 1016 1030 1052 1077 1106 1112 
559<=> 26 98 115 136 219 248 257 282 287 366 385 443 485 532 547 552 569 578 583 587 609 626 630 662 668 678 680 697 699 709 748 778 779 784 799 801 802 813 817 818 827 828 856 862 863 868 873 876 924 931 936 996 1001 1002 1008 1015 1016 1023 1030 1046 1052 1077 1091 1106 1112 
560<=> 306 
561<=> 66 
562<=> 26 76 83 93 94 98 115 136 179 219 235 236 239 248 257 281 282 286 287 305 323 333 336 340 343 344 366 375 385 400 405 421 443 451 473 477 485 532 547 548 552 563 569 574 577 578 582 583 585 586 587 592 595 605 607 609 623 626 630 635 643 661 662 668 672 678 680 686 693 697 699 700 701 709 714 717 726 732 736 748 754 756 764 769 776 777 778 779 784 789 799 801 802 804 810 813 817 818 823 827 828 856 858 862 863 868 872 873 876 892 904 912 924 925 931 932 936 943 957 963 980 981 982 983 987 996 1001 1002 1004 1007 1008 1009 1013 1014 1015 1016 1018 1023 1025 1030 1037 1038 1046 1047 1048 1052 1060 1071 1073 1077 1084 1091 1094 1106 1108 1112 
566<=> 9 77 83 93 94 98 115 189 219 257 281 282 286 287 291 323 333 366 385 387 421 451 541 547 571 575 577 583 585 586 587 595 599 605 607 608 609 613 623 629 630 643 668 677 678 685 699 701 711 754 756 764 770 778 784 799 810 813 818 821 823 824 827 828 847 856 858 862 872 873 876 892 904 931 943 973 981 983 987 993 996 1001 1004 1015 1016 1018 1025 1038 1047 1048 1052 1056 1060 1062 1071 1084 1106 1112 
567<=> 558 
568<=> 174 
569<=> 26 98 219 485 583 609 668 680 748 779 818 828 856 873 876 931 1001 1002 1008 1112 
570<=> 135 
572<=> 368 
573<=> 128 
574<=> 26 83 98 282 286 366 375 405 443 477 592 595 605 678 697 699 700 709 714 732 748 769 789 802 804 810 813 817 823 828 856 858 862 863 868 872 876 892 924 932 936 987 1002 1007 1015 1038 1048 1073 1084 
575<=> 9 83 98 282 286 366 595 599 605 608 677 678 699 810 813 823 828 856 858 862 872 876 892 987 1015 1038 1048 1084 
576<=> 9 26 83 93 94 98 219 257 281 305 343 344 366 375 405 485 548 583 585 605 607 608 609 643 668 680 686 748 770 778 779 818 827 828 856 858 872 873 876 925 931 959 973 981 1001 1002 1008 1018 1025 1056 1060 1106 1112 
577<=> 764 778 
578<=> 287 485 532 626 778 779 828 863 873 1001 1008 1015 1023 
579<=> 128 
580<=> 46 
581<=> 1 2 12 18 21 36 51 73 150 152 187 245 271 332 342 403 482 537 538 540 541 603 631 647 681 689 692 731 759 851 861 909 933 977 979 992 1070 1078 1080 1081 1097 1107 
582<=> 485 779 828 873 925 1001 1008 1048 
583<=> 98 219 609 668 818 828 856 873 876 931 1001 1112 
584<=> 1 2 18 245 538 540 759 910 979 
585<=> 93 219 609 
586<=> 83 93 94 98 219 257 281 282 287 323 366 605 607 609 630 643 668 699 701 756 764 778 784 813 818 823 827 828 856 858 862 872 873 876 892 931 981 987 1001 1015 1018 1025 1052 1060 1071 1106 1112 
587<=> 98 257 282 287 366 609 678 818 828 862 1001 1052 1112 
588<=> 558 
589<=> 174 
590<=> 437 
591<=> 351 
592<=> 26 405 748 823 858 987 
593<=> 128 
594<=> 454 
596<=> 585 
597<=> 338 
598<=> 525 
599<=> 9 83 98 282 677 828 862 987 
600<=> 28 
602<=> 120 
603<=> 1 2 18 21 51 187 245 332 538 540 541 681 689 731 759 977 979 1078 
604<=> 11 18 73 245 332 481 768 
606<=> 302 
607<=> 83 93 94 98 219 257 281 366 605 609 643 668 778 818 827 828 856 858 872 873 876 931 981 1001 1018 1025 1060 1106 1112 
610<=> 433 
611<=> 84 
612<=> 47 
614<=> 2 11 18 21 72 73 146 150 245 270 332 403 481 538 539 540 541 768 918 933 977 978 1041 1064 1080 
615<=> 509 
616<=> 168 
617<=> 174 
618<=> 1 2 11 12 18 21 27 36 51 72 73 109 130 139 152 187 215 234 245 246 269 270 271 332 342 401 468 482 538 540 541 620 632 647 658 670 671 681 689 731 738 759 768 806 836 851 861 883 889 903 909 918 933 934 950 977 978 979 984 992 1041 1064 1070 1078 1080 1081 1097 
619<=> 2 11 12 15 18 21 36 44 72 73 130 145 152 159 245 270 271 332 342 452 459 517 530 535 538 540 541 666 670 738 749 768 780 888 918 920 933 972 977 978 992 1041 1064 1070 1080 1111 
620<=> 1 2 11 12 18 21 27 36 51 72 130 139 152 187 215 245 246 269 270 271 332 342 401 468 538 540 541 647 658 671 681 689 731 759 851 861 889 903 918 934 977 979 984 992 1041 1070 1078 1081 
621<=> 178 
622<=> 84 
624<=> 133 
625<=> 128 
627<=> 368 
628<=> 46 
629<=> 189 291 541 699 
630<=> 98 219 257 282 287 366 609 668 699 778 784 813 818 827 828 856 862 873 876 931 1001 1015 1052 1106 1112 
631<=> 2 12 18 21 36 152 245 271 332 342 537 538 540 541 977 992 1070 
633<=> 1 2 18 73 197 234 245 332 403 482 538 540 541 759 933 979 1078 1097 
635<=> 26 83 93 94 98 219 282 286 287 323 333 340 343 344 375 400 405 451 473 477 485 552 595 605 609 623 668 678 680 697 699 700 701 709 726 748 754 764 779 784 801 804 813 817 818 828 856 862 863 873 876 892 912 924 925 931 936 963 982 987 996 1001 1002 1004 1008 1009 1018 1025 1030 1048 1060 1073 1077 1112 
638<=> 2 11 15 18 21 44 72 73 145 146 150 159 245 255 270 332 403 449 452 459 463 481 517 530 538 539 540 541 666 768 780 888 918 920 933 972 977 978 999 1010 1041 1064 1080 
639<=> 28 
640<=> 68 
641<=> 475 
643<=> 93 219 257 281 609 778 858 1106 
644<=> 338 
645<=> 338 
646<=> 603 
647<=> 1 2 12 18 21 36 51 152 187 245 271 332 342 538 540 541 681 689 731 759 851 861 977 979 992 1070 1078 1081 
648<=> 118 
649<=> 2 11 18 21 72 180 245 270 332 538 540 541 918 977 1041 1067 
650<=> 338 
651<=> 28 
652<=> 193 
653<=> 120 
654<=> 338 
655<=> 5 
656<=> 603 
657<=> 28 
658<=> 2 11 18 21 27 72 245 270 332 538 540 541 918 977 1041 
659<=> 393 
660<=> 607 
662<=> 26 98 219 248 257 282 287 366 485 552 609 668 680 697 699 748 778 779 784 802 813 817 818 827 828 856 862 863 873 876 924 931 1001 1002 1008 1015 1030 1052 1077 1106 1112 
663<=> 200 
664<=> 558 
665<=> 585 
666<=> 2 11 18 21 44 72 73 145 245 270 332 517 530 538 540 541 768 780 918 920 933 977 978 1041 1064 1080 
667<=> 338 
669<=> 338 
673<=> 93 
674<=> 84 
675<=> 98 
679<=> 296 
680<=> 26 219 485 609 748 1008 
682<=> 84 
683<=> 410 
684<=> 585 
685<=> 98 219 257 282 287 366 609 668 678 699 770 778 784 799 813 818 827 828 856 862 873 876 931 973 993 996 1001 1015 1016 1052 1106 1112 
687<=> 124 
689<=> 1 2 18 21 187 245 538 540 681 731 759 977 979 
690<=> 295 
691<=> 11 36 152 245 271 537 539 540 670 758 942 
694<=> 83 93 94 98 245 285 609 634 818 828 866 886 906 975 1001 1025 1112 
696<=> 558 
698<=> 195 
700<=> 26 83 98 282 375 405 605 697 699 748 813 817 828 856 862 863 876 892 924 987 1002 
701<=> 83 93 94 98 219 282 287 323 605 609 668 699 764 784 813 818 828 856 862 873 876 892 931 987 1001 1018 1025 1060 1112 
702<=> 128 
703<=> 284 
704<=> 635 
705<=> 265 
706<=> 677 686 714 818 828 873 959 1007 1025 1077 
707<=> 26 87 98 115 136 139 140 203 219 220 248 257 282 287 315 329 366 385 387 443 485 532 541 547 552 609 626 668 678 697 699 709 748 770 778 779 784 799 801 802 813 814 817 818 827 828 856 862 863 868 873 876 924 931 936 956 973 993 996 1001 1002 1008 1015 1016 1023 1030 1046 1052 1077 1091 1098 1106 1112 
708<=> 635 
710<=> 9 139 291 541 571 778 828 863 
711<=> 9 189 282 451 605 623 699 764 818 828 996 1004 1018 
712<=> 265 
713<=> 265 
715<=> 128 
716<=> 635 
717<=> 26 93 219 257 281 286 305 344 405 473 485 548 609 748 778 858 1008 1009 1048 1106 
718<=> 583 
719<=> 515 
720<=> 569 
721<=> 515 
722<=> 168 
723<=> 48 
724<=> 562 
726<=> 26 83 93 94 98 219 286 333 343 344 375 405 473 485 605 609 623 668 678 748 779 818 828 856 873 876 925 931 1001 1002 1008 1009 1018 1025 1048 1060 1112 
727<=> 586 
729<=> 2 18 245 906 
730<=> 120 
732<=> 26 405 748 817 823 858 987 
733<=> 66 
735<=> 368 
736<=> 26 93 219 235 239 248 257 281 286 305 323 336 344 400 405 451 473 477 485 548 595 609 748 756 764 778 817 823 858 912 932 980 983 987 996 1008 1009 1048 1073 1106 
737<=> 584 
738<=> 2 11 12 18 36 73 130 152 245 271 332 538 540 541 670 768 918 933 978 992 
739<=> 47 
740<=> 689 
741<=> 338 
742<=> 176 
743<=> 68 
745<=> 9 26 83 93 94 98 132 189 219 282 286 287 323 333 340 343 344 375 400 405 451 473 477 485 552 595 605 609 623 668 677 678 697 699 709 748 754 764 779 784 801 804 813 814 817 818 824 828 856 862 863 873 876 892 912 924 925 931 936 959 963 973 982 987 996 1001 1002 1004 1008 1009 1018 1025 1030 1048 1056 1060 1073 1077 1112 
746<=> 603 
747<=> 28 
750<=> 393 
751<=> 133 
752<=> 302 
753<=> 395 
755<=> 1 18 187 245 731 866 906 
756<=> 93 219 257 281 323 609 764 778 823 858 987 1106 
757<=> 513 
760<=> 37 
761<=> 84 
762<=> 393 
763<=> 120 
765<=> 28 
766<=> 393 
767<=> 84 
768<=> 11 18 73 245 332 
769<=> 26 83 98 282 286 366 375 405 477 595 678 697 709 748 789 823 828 858 862 863 924 936 987 1007 1084 
771<=> 585 
772<=> 181 
773<=> 467 
774<=> 1 2 11 12 18 21 36 51 72 130 139 152 171 187 245 270 271 332 342 538 540 541 681 688 731 759 851 861 866 889 903 906 918 969 971 977 979 984 992 1041 1070 1078 1081 
776<=> 26 76 83 93 94 98 115 136 219 235 239 248 257 281 282 287 305 323 336 340 343 344 366 375 385 405 421 485 532 547 548 552 563 605 609 626 668 672 686 693 697 699 714 748 764 778 779 784 802 813 817 818 823 827 828 856 858 862 863 872 873 876 892 904 924 925 931 963 981 982 987 1001 1002 1007 1008 1014 1015 1018 1023 1025 1030 1046 1052 1060 1071 1077 1091 1094 1106 1112 
777<=> 485 1008 1023 1048 
779<=> 485 828 873 1001 1008 
781<=> 338 
784<=> 98 219 282 287 609 668 699 813 818 828 856 862 873 876 931 1001 1112 
785<=> 46 
786<=> 387 
787<=> 467 
788<=> 162 
790<=> 1 2 18 21 187 245 538 540 681 688 731 759 791 793 796 797 860 866 906 910 969 977 979 1067 
792<=> 1 2 18 21 187 245 538 540 681 688 728 731 759 791 793 796 797 860 866 891 906 910 969 977 979 1067 1086 
793<=> 1 2 18 245 538 540 688 759 791 796 797 866 906 910 969 979 
794<=> 792 
795<=> 793 
796<=> 1 2 18 245 538 540 688 759 791 797 866 906 969 979 
797<=> 2 18 245 538 540 791 906 969 
798<=> 586 
799<=> 98 219 257 282 287 366 609 668 678 699 778 813 818 827 828 856 862 873 876 931 996 1001 1015 1016 1052 1106 1112 
800<=> 351 
801<=> 26 98 219 282 287 485 552 609 668 678 697 699 709 748 813 817 818 828 856 862 863 873 876 924 931 936 996 1001 1002 1008 1030 1077 1112 
802<=> 26 98 282 366 697 699 748 813 817 828 856 862 863 876 924 1002 1015 
803<=> 647 
804<=> 26 83 98 282 286 375 405 477 595 605 678 697 699 709 748 813 817 828 856 862 863 876 892 924 936 987 1002 1048 1073 
805<=> 726 
807<=> 66 
808<=> 174 
809<=> 784 
811<=> 494 
812<=> 1 2 11 12 18 21 73 130 152 187 245 271 342 517 538 540 670 681 731 759 780 861 933 977 979 984 992 1070 1081 
813<=> 98 282 699 828 856 862 876 
815<=> 338 
816<=> 575 
819<=> 118 
820<=> 157 
822<=> 779 
825<=> 83 93 94 98 219 605 609 636 637 668 818 828 856 873 876 931 1001 1018 1025 1060 1112 
826<=> 9 26 76 77 83 87 93 94 98 115 136 140 170 219 227 228 235 239 248 257 281 282 287 305 310 315 323 329 336 340 343 344 366 375 385 387 405 421 485 531 532 547 548 552 563 571 605 608 609 613 626 668 672 677 686 693 697 699 714 748 764 770 778 817 818 821 823 827 828 847 856 858 862 863 872 873 876 892 904 924 925 931 956 959 963 973 981 982 987 1001 1002 1007 1008 1014 1015 1018 1023 1025 1030 1033 1046 1052 1056 1059 1060 1062 1071 1075 1077 1090 1091 1094 1106 1112 
827<=> 98 219 257 366 609 668 778 818 828 856 873 876 931 1001 1106 1112 
829<=> 338 
830<=> 701 
831<=> 587 
832<=> 393 
833<=> 393 
834<=> 369 
835<=> 177 
836<=> 1 2 11 18 21 73 187 245 538 540 671 681 731 759 806 933 977 979 984 
837<=> 2 11 12 18 21 36 72 73 130 146 150 152 245 270 271 332 342 403 481 537 538 539 540 541 670 908 918 933 977 978 992 1041 1064 1070 1080 
838<=> 52 
839<=> 120 
840<=> 223 
841<=> 369 
842<=> 618 
843<=> 393 
844<=> 603 
845<=> 28 
848<=> 837 
849<=> 647 
850<=> 137 
851<=> 1 12 18 36 152 245 332 538 
852<=> 799 
853<=> 128 
854<=> 662 
855<=> 827 
856<=> 98 828 876 
857<=> 221 
859<=> 191 
860<=> 1 2 18 21 187 245 538 540 681 731 759 910 977 979 1067 
861<=> 1 2 12 18 21 187 245 271 342 681 731 759 
864<=> 84 
867<=> 558 
868<=> 26 98 282 366 443 678 697 699 709 748 817 828 862 863 876 924 936 1002 1015 
869<=> 368 
871<=> 585 
874<=> 827 
875<=> 804 
877<=> 393 
878<=> 1 2 11 18 245 332 538 540 541 728 759 891 903 910 918 964 979 984 1078 
880<=> 393 
881<=> 393 
882<=> 120 
883<=> 1 2 11 18 21 51 72 73 139 187 245 270 332 482 538 540 541 632 681 731 759 889 903 918 933 950 977 978 979 984 1041 1064 1078 1080 1097 
885<=> 64 
887<=> 635 
889<=> 1 11 18 51 72 187 245 332 731 
890<=> 585 
891<=> 1 2 18 245 538 540 728 759 910 979 
893<=> 59 
894<=> 586 
896<=> 583 
897<=> 558 
898<=> 1 2 12 18 21 36 51 138 152 171 187 245 271 332 342 538 540 541 681 688 731 759 791 866 906 969 971 977 979 992 1070 1078 1081 
901<=> 128 
902<=> 1 2 11 18 22 146 245 269 332 538 539 540 541 759 903 918 979 984 1078 
903<=> 1 11 18 245 332 538 918 
905<=> 59 
907<=> 609 
908<=> 2 11 12 18 36 130 146 152 245 271 332 537 538 539 540 541 918 992 
911<=> 538 
912<=> 26 93 219 286 323 344 400 405 451 473 477 485 595 609 748 764 817 987 996 1008 1009 1048 1073 
913<=> 825 
914<=> 104 
915<=> 128 
916<=> 558 
917<=> 395 
918<=> 11 18 245 332 538 
919<=> 1 2 18 21 51 73 171 187 245 332 482 538 540 541 681 688 731 759 866 906 933 969 971 977 979 1078 1080 1097 
920<=> 2 11 18 44 73 145 245 332 538 540 541 780 933 978 
921<=> 120 
922<=> 338 
923<=> 28 
924<=> 26 98 282 697 748 828 862 863 
926<=> 84 
927<=> 118 
928<=> 603 
930<=> 1 2 11 12 18 21 36 44 51 72 73 130 139 145 152 187 245 270 271 332 342 482 517 530 538 540 541 632 670 681 731 749 759 780 909 933 940 950 977 978 979 984 992 1041 1064 1070 1078 1080 1081 1097 1111 
932<=> 26 286 405 477 595 748 817 823 858 987 1048 1073 
933<=> 2 18 73 245 
937<=> 801 
938<=> 26 98 219 282 287 354 485 552 609 668 678 697 699 709 748 817 818 828 862 863 873 876 931 936 968 996 1001 1002 1008 1030 1077 1112 
939<=> 801 
941<=> 566 
944<=> 84 
945<=> 827 
946<=> 84 
947<=> 837 
948<=> 84 
949<=> 118 
950<=> 1 11 18 73 245 332 482 
951<=> 630 
953<=> 866 
954<=> 643 
956<=> 26 87 98 115 136 140 219 248 257 282 287 315 329 366 385 387 485 532 547 552 609 626 668 697 699 748 770 778 817 818 828 862 863 873 876 931 973 1001 1002 1008 1015 1023 1030 1046 1052 1077 1091 1106 1112 
957<=> 26 93 179 235 239 248 257 281 286 305 323 336 344 400 405 451 477 548 595 609 661 748 764 823 858 980 983 987 1008 1009 1046 
958<=> 804 
960<=> 193 
961<=> 28 
962<=> 68 
965<=> 128 
966<=> 120 
967<=> 562 
969<=> 18 245 538 906 
970<=> 969 
972<=> 2 11 18 73 245 332 452 538 540 541 978 
974<=> 513 
978<=> 2 11 18 73 245 332 538 540 541 
979<=> 1 2 18 245 538 540 759 
981<=> 83 93 94 98 257 281 366 609 818 828 858 1001 1025 1112 
983<=> 93 257 281 286 323 451 595 609 764 823 858 987 
984<=> 1 2 11 18 245 538 540 759 
985<=> 84 
986<=> 395 
989<=> 128 
990<=> 891 
991<=> 157 
992<=> 2 12 18 152 245 271 538 540 
994<=> 440 
995<=> 439 
997<=> 59 
999<=> 2 11 15 18 21 72 73 146 150 245 270 332 403 452 481 538 539 540 541 888 977 1010 1041 1064 1080 
1000<=> 369 
1003<=> 157 
1004<=> 282 451 605 623 699 764 818 828 996 1018 
1005<=> 174 
1009<=> 26 93 286 344 405 609 748 1008 
1011<=> 1 2 11 15 18 21 51 72 73 139 180 187 245 270 332 452 482 538 540 541 632 681 731 759 888 899 977 1041 1064 1069 1078 1080 1097 
1012<=> 84 
1013<=> 235 236 239 343 548 563 686 699 754 817 980 982 
1014<=> 26 83 98 115 136 282 366 375 405 532 605 626 697 699 714 748 817 823 828 858 862 863 872 876 892 904 987 1002 1007 1015 1046 
1017<=> 586 
1019<=> 174 
1020<=> 368 
1021<=> 78 
1024<=> 931 
1026<=> 338 
1027<=> 1 2 12 18 21 36 51 152 187 245 271 332 342 537 538 540 541 681 731 759 910 975 977 1067 1070 1078 1081 
1029<=> 338 
1030<=> 26 98 219 282 287 485 552 609 668 697 699 748 817 818 828 862 863 873 876 931 1001 1002 1008 1077 1112 
1031<=> 128 
1032<=> 40 
1033<=> 26 77 93 227 235 239 248 257 281 305 310 323 336 344 405 548 609 748 764 823 858 987 1008 1046 
1034<=> 607 
1035<=> 437 
1036<=> 810 
1037<=> 26 93 179 219 286 323 344 400 405 451 473 477 485 595 609 661 748 764 817 987 996 1008 1023 1048 1073 
1038<=> 83 98 282 286 366 595 605 678 699 810 823 828 858 862 872 876 892 987 1015 1048 1084 
1039<=> 174 
1041<=> 11 18 72 245 332 538 977 
1042<=> 906 
1043<=> 868 
1044<=> 668 
1047<=> 83 93 94 98 219 257 281 286 333 366 605 609 623 668 678 778 818 828 858 872 873 876 931 1001 1018 1025 1048 1060 1084 1106 1112 
1049<=> 230 
1050<=> 1 2 11 12 18 21 22 36 51 72 73 130 139 146 150 152 187 245 270 271 332 342 403 481 482 537 538 539 540 541 632 670 681 731 759 909 977 1064 1070 1078 1080 1081 1097 
1051<=> 635 
1052<=> 98 257 282 287 366 609 818 828 862 1001 1112 
1053<=> 84 
1054<=> 84 
1055<=> 525 
1057<=> 128 
1058<=> 583 
1061<=> 635 
1062<=> 93 219 609 821 
1063<=> 66 
1065<=> 662 
1066<=> 825 
1068<=> 462 
1069<=> 1 2 15 18 21 187 245 538 540 681 731 759 977 
1070<=> 2 12 18 21 152 245 271 342 538 540 977 
1071<=> 83 93 94 98 257 281 282 287 323 366 609 764 818 823 828 858 862 987 1001 1025 1112 
1072<=> 78 
1073<=> 26 286 405 477 595 748 817 987 1048 
1074<=> 128 
1076<=> 338 
1078<=> 1 2 18 245 332 538 540 541 759 
1079<=> 866 
1080<=> 2 18 21 73 245 332 
1081<=> 1 2 12 18 21 152 187 245 271 342 538 540 681 731 759 977 
1082<=> 120 
1083<=> 17 
1084<=> 83 98 286 366 678 828 858 
1085<=> 981 
1086<=> 245 728 866 906 
1088<=> 338 
1090<=> 9 26 76 77 83 87 93 94 98 136 227 235 239 248 257 281 282 287 305 310 323 336 343 344 366 375 405 532 548 552 609 672 677 697 748 764 818 823 828 858 862 863 904 987 1001 1007 1008 1025 1046 1112 
1091<=> 26 98 115 136 219 248 257 282 287 366 385 485 532 547 552 609 626 668 697 699 748 778 817 818 828 862 863 873 876 931 1001 1002 1008 1015 1023 1046 1077 1106 1112 
1092<=> 776 
1093<=> 356 
1094<=> 282 421 547 563 605 699 764 778 818 828 863 872 1018 1077 
1095<=> 433 
1096<=> 11 26 83 93 94 98 245 282 285 287 323 343 344 354 375 405 552 609 634 697 731 748 764 818 828 862 863 866 886 906 975 987 1001 1008 1025 1112 
1097<=> 1 2 18 73 245 332 482 538 540 541 759 
1099<=> 84 
1100<=> 93 
1102<=> 11 36 152 245 271 537 539 540 695 906 971 
1103<=> 790 
1104<=> 157 
1105<=> 1047 
1106<=> 219 257 609 778 
1109<=> 454 
1110<=> 338 
1111<=> 2 11 12 18 21 36 72 130 152 245 270 271 332 342 530 538 540 541 749 977 
-0.00 Creating row comparison table.
-0.00 Creating column comparison table.
0.01 Creating up and down arrows.
0.01 Calling shd. Producing hypergraph with a parameter siz: 13.
894.78 Returned from shd.
894.78 readDualToImplication start.
